#Command: "C:\Program Files (x86)\Microsoft Visual Studio\2017\Enterprise\VC\Tools\MSVC\14.11.25503\bin\HostX86\x86\link.exe" /ERRORREPORT:PROMPT @C:\Users\rible\AppData\Local\Temp\tmpda5f00898eef4d31950e5c882bd3c931.rsp /incremental /nologo /fullbuild
^C:\USERS\RIBLE\SOURCE\REPOS\ZOBRISTLIB\DEBUG\ZOBRISTLIB.LIB|C:\USERS\RIBLE\SOURCE\REPOS\ZOBRISTLIB\UNITTEST1\DEBUG\STDAFX.OBJ|C:\USERS\RIBLE\SOURCE\REPOS\ZOBRISTLIB\UNITTEST1\DEBUG\UNITTEST1.OBJ
C:\USERS\RIBLE\APPDATA\LOCAL\TEMP\LNK{4C7D6C71-D4D4-4766-9DB5-E51ACAEF8CD9}.TMP
